# Blender MTL File: 'simple01.blend'
# Material Count: 2

newmtl Cage_Mat
Ns 88.235294
Ka 0.000000 0.000000 0.000000
Kd 0.492141 0.492141 0.492141
Ks 0.450355 0.450355 0.450355
Ni 1.000000
d 1.000000
illum 2

newmtl Ground_Mat
Ns 19.607843
Ka 0.000000 0.000000 0.000000
Kd 0.800000 0.800000 0.800000
Ks 0.503546 0.503546 0.503546
Ni 1.000000
d 1.000000
illum 2
map_Bump simple_hex_textures/normal.tga
map_Kd simple_hex_textures/diffus.tga
